…
## `arrange()` — Sort Cases

In SPSS: **Data > Sort Cases**. In R:


``` r
# Sort by stayover visitors, ascending (default)
arrange(visitors, visitors_stayover)
```

``` output
# A tibble: 120 × 13
    year quarter origin      visitors_stayover visitors_cruise avg_stay_nights
   <dbl> <chr>   <chr>                   <dbl>           <dbl>           <dbl>
 1  2020 Q2      Canada                    180               0             5.2
 2  2020 Q2      Venezuela                 200               0             3.5
 3  2020 Q2      Colombia                  300               0             3.8
 4  2020 Q2      Other                     400               0             4.1
 5  2020 Q3      Venezuela                 800               0             3.9
 6  2020 Q2      Netherlands              1100               0             8.5
 7  2020 Q3      Canada                   1100               0             5.8
 8  2020 Q3      Colombia                 1200               0             4  
 9  2020 Q4      Venezuela                1800               0             4.1
10  2021 Q1      Venezuela                2100              50             4  
# ℹ 110 more rows
# ℹ 7 more variables: avg_spending_usd <dbl>, hotel_occupancy_pct <dbl>,
#   satisfaction_score <dbl>, total_visitors <dbl>, spending_per_night <dbl>,
#   stayover_pct <dbl>, region <chr>
```


``` r
# Sort descending — use desc()
arrange(visitors, desc(visitors_stayover))
```

``` output
# A tibble: 120 × 13
    year quarter origin        visitors_stayover visitors_cruise avg_stay_nights
   <dbl> <chr>   <chr>                     <dbl>           <dbl>           <dbl>
 1  2023 Q1      United States             78200           48900             7  
 2  2023 Q4      United States             75600           46100             6.9
 3  2022 Q1      United States             74800           46800             6.9
 4  2019 Q1      United States             72450           45200             6.8
 5  2022 Q4      United States             72100           44500             6.8
 6  2023 Q2      United States             70100           41200             6.7
 7  2019 Q4      United States             69800           42800             6.7
 8  2020 Q1      United States             68100           40200             6.6
 9  2022 Q2      United States             67500           39200             6.6
10  2019 Q2      United States             65200           38100             6.5
# ℹ 110 more rows
# ℹ 7 more variables: avg_spending_usd <dbl>, hotel_occupancy_pct <dbl>,
#   satisfaction_score <dbl>, total_visitors <dbl>, spending_per_night <dbl>,
#   stayover_pct <dbl>, region <chr>
```


``` r
# Sort by multiple columns: year first, then by stayover visitors descending
arrange(visitors, year, desc(visitors_stayover))
```

``` output
# A tibble: 120 × 13
    year quarter origin        visitors_stayover visitors_cruise avg_stay_nights
   <dbl> <chr>   <chr>                     <dbl>           <dbl>           <dbl>
 1  2019 Q1      United States             72450           45200             6.8
 2  2019 Q4      United States             69800           42800             6.7
 3  2019 Q2      United States             65200           38100             6.5
 4  2019 Q3      United States             58900           32400             6.2
 5  2019 Q3      Netherlands               21200             800            10.5
 6  2019 Q4      Netherlands               19600            1100            10.4
 7  2019 Q1      Netherlands               18300            1200            10.2
 8  2019 Q2      Netherlands               15400             900             9.8
 9  2019 Q1      Other                      9800            5600             5.5
10  2019 Q4      Other                      8900            5100             5.4
# ℹ 110 more rows
# ℹ 7 more variables: avg_spending_usd <dbl>, hotel_occupancy_pct <dbl>,
#   satisfaction_score <dbl>, total_visitors <dbl>, spending_per_night <dbl>,
#   stayover_pct <dbl>, region <chr>
```
…
### Building up a pipeline step by step

A good workflow is to build your pipeline one step at a time, checking the
result after each line. Let us work through an example:


``` r
# Step 1: Start with the data
visitors |>
  filter(year >= 2022)
```

``` output
# A tibble: 48 × 13
    year quarter origin        visitors_stayover visitors_cruise avg_stay_nights
   <dbl> <chr>   <chr>                     <dbl>           <dbl>           <dbl>
 1  2022 Q1      United States             74800           46800             6.9
 2  2022 Q1      Netherlands               19100            1300            10.3
 3  2022 Q1      Venezuela                  4800             200             4.4
 4  2022 Q1      Colombia                   5900             750             4.7
 5  2022 Q1      Canada                     4600            3300             7.2
 6  2022 Q1      Other                     10200            5800             5.6
 7  2022 Q2      United States             67500           39200             6.6
 8  2022 Q2      Netherlands               16200            1000            10  
 9  2022 Q2      Venezuela                  4200             150             4.3
10  2022 Q2      Colombia                   5600             650             4.6
# ℹ 38 more rows
# ℹ 7 more variables: avg_spending_usd <dbl>, hotel_occupancy_pct <dbl>,
#   satisfaction_score <dbl>, total_visitors <dbl>, spending_per_night <dbl>,
#   stayover_pct <dbl>, region <chr>
```


``` r
# Step 2: Add a column selection
visitors |>
  filter(year >= 2022) |>
  select(year, quarter, origin, visitors_stayover, avg_spending_usd)
```

``` output
# A tibble: 48 × 5
    year quarter origin        visitors_stayover avg_spending_usd
   <dbl> <chr>   <chr>                     <dbl>            <dbl>
 1  2022 Q1      United States             74800             1280
 2  2022 Q1      Netherlands               19100             1000
 3  2022 Q1      Venezuela                  4800              570
 4  2022 Q1      Colombia                   5900              700
 5  2022 Q1      Canada                     4600             1200
 6  2022 Q1      Other                     10200              900
 7  2022 Q2      United States             67500             1250
 8  2022 Q2      Netherlands               16200              980
 9  2022 Q2      Venezuela                  4200              550
10  2022 Q2      Colombia                   5600              690
# ℹ 38 more rows
```
…
